[gd_scene load_steps=5 format=3 uid="uid://cxiiy35temxqv"]

[ext_resource type="Script" path="res://objects/points/points.gd" id="1_4la3r"]

[sub_resource type="Animation" id="Animation_82wne"]
length = 0.001
tracks/0/type = "value"
tracks/0/imported = false
tracks/0/enabled = true
tracks/0/path = NodePath("Label:modulate")
tracks/0/interp = 1
tracks/0/loop_wrap = true
tracks/0/keys = {
"times": PackedFloat32Array(0),
"transitions": PackedFloat32Array(1),
"update": 0,
"values": [Color(1, 1, 1, 1)]
}

[sub_resource type="Animation" id="Animation_85yg3"]
resource_name = "deafult"
tracks/0/type = "value"
tracks/0/imported = false
tracks/0/enabled = true
tracks/0/path = NodePath("Label:modulate")
tracks/0/interp = 1
tracks/0/loop_wrap = true
tracks/0/keys = {
"times": PackedFloat32Array(0, 1),
"transitions": PackedFloat32Array(1, 1),
"update": 0,
"values": [Color(1, 1, 1, 1), Color(1, 1, 1, 0)]
}
tracks/1/type = "method"
tracks/1/imported = false
tracks/1/enabled = true
tracks/1/path = NodePath(".")
tracks/1/interp = 1
tracks/1/loop_wrap = true
tracks/1/keys = {
"times": PackedFloat32Array(1),
"transitions": PackedFloat32Array(1),
"values": [{
"args": [],
"method": &"queue_free"
}]
}

[sub_resource type="AnimationLibrary" id="AnimationLibrary_7yb7h"]
_data = {
"RESET": SubResource("Animation_82wne"),
"deafult": SubResource("Animation_85yg3")
}

[node name="points" type="Node2D"]
script = ExtResource("1_4la3r")

[node name="Label" type="Label" parent="."]
offset_right = 40.0
offset_bottom = 23.0
theme_override_colors/font_outline_color = Color(0, 0, 0, 1)
theme_override_constants/outline_size = 5
theme_override_font_sizes/font_size = 30
text = "+10"

[node name="AnimationPlayer" type="AnimationPlayer" parent="."]
autoplay = "deafult"
libraries = {
"": SubResource("AnimationLibrary_7yb7h")
}
